<?xml version="1.0" encoding="UTF-8" standalone="no"?>
<!-- Generator: Adobe Illustrator 18.1.1, SVG Export Plug-In . SVG Version: 6.00 Build 0)  -->

<svg
   xmlns:dc="http://purl.org/dc/elements/1.1/"
   xmlns:cc="http://creativecommons.org/ns#"
   xmlns:rdf="http://www.w3.org/1999/02/22-rdf-syntax-ns#"
   xmlns:svg="http://www.w3.org/2000/svg"
   xmlns="http://www.w3.org/2000/svg"
   xmlns:sodipodi="http://sodipodi.sourceforge.net/DTD/sodipodi-0.dtd"
   xmlns:inkscape="http://www.inkscape.org/namespaces/inkscape"
   version="1.1"
   id="Ebene_1"
   x="0px"
   y="0px"
   viewBox="0 0 376.39998 298.79999"
   enable-background="new 0 0 841.9 595.3"
   xml:space="preserve"
   inkscape:version="0.91 r13725"
   sodipodi:docname="logo_pbg.svg"
   width="376.39999"
   height="298.79999"><metadata
     id="metadata4183"><rdf:RDF><cc:Work
         rdf:about=""><dc:format>image/svg+xml</dc:format><dc:type
           rdf:resource="http://purl.org/dc/dcmitype/StillImage" /><dc:title></dc:title></cc:Work></rdf:RDF></metadata><defs
     id="defs4181" /><sodipodi:namedview
     pagecolor="#ffffff"
     bordercolor="#666666"
     borderopacity="1"
     objecttolerance="10"
     gridtolerance="10"
     guidetolerance="10"
     inkscape:pageopacity="0"
     inkscape:pageshadow="2"
     inkscape:window-width="1920"
     inkscape:window-height="1017"
     id="namedview4179"
     showgrid="false"
     inkscape:zoom="1.4244919"
     inkscape:cx="226.45001"
     inkscape:cy="127.35001"
     inkscape:window-x="1912"
     inkscape:window-y="-8"
     inkscape:window-maximized="1"
     inkscape:current-layer="Ebene_1"
     fit-margin-top="0"
     fit-margin-left="0"
     fit-margin-right="0"
     fit-margin-bottom="0"
     showborder="true"
     inkscape:showpageshadow="false" /><g
     id="g4137"
     transform="translate(-194.5,-126.2)"><path
       d="m 334.8,258 -18.8,0 0,-131.8 48.1,0 c 23.3,0 42.3,19 42.3,42.3 0,23.3 -19,42.3 -42.3,42.3 l -9.8,0 0,-18.8 9.8,0 c 13,0 23.5,-10.5 23.5,-23.5 0,-13 -10.5,-23.5 -23.5,-23.5 l -29.3,0 0,113 z"
       id="path4139"
       inkscape:connector-curvature="0"
       style="fill:#00121e" /></g><polygon
     points="411.6,230.8 411.6,249.5 373.5,249.5 373.5,330.8 429.7,330.8 429.7,301 448.5,301 448.5,349.6 354.7,349.6 354.7,230.8 "
     id="polygon4141"
     style="fill:#00121e"
     transform="translate(-194.5,-126.2)" /><g
     id="g4143"
     transform="translate(-194.5,-126.2)"><path
       d="m 194.5,404.9 7.7,0 c 4.5,0 7.5,2.8 7.5,6.9 0,4.3 -3.1,7.1 -7.7,7.1 l -3.1,0 0,5.6 -4.4,0 0,-19.6 z m 7.2,10.4 c 2.1,0 3.5,-1.4 3.5,-3.5 0,-1.9 -1.4,-3.2 -3.5,-3.2 l -2.8,0 0,6.7 2.8,0 z"
       id="path4145"
       inkscape:connector-curvature="0"
       style="fill:#00121e" /><path
       d="m 228.4,424.5 -4.4,-6.9 -3,0 0,6.9 -4.4,0 0,-19.7 8.2,0 c 4.6,0 7.5,2.5 7.5,6.4 0,2.6 -1.3,4.6 -3.7,5.6 l 5.1,7.7 -5.3,0 z M 221,414 l 3.2,0 c 2.3,0 3.7,-1 3.7,-2.7 0,-1.7 -1.3,-2.7 -3.5,-2.7 l -3.4,0 0,5.4 z"
       id="path4147"
       inkscape:connector-curvature="0"
       style="fill:#00121e" /><path
       d="m 239.5,414.7 c 0,-6 4.1,-10.3 10.1,-10.3 6,0 10.1,4.2 10.1,10.3 0,6 -4.2,10.3 -10.1,10.3 -6,-0.1 -10.1,-4.3 -10.1,-10.3 z m 15.8,0 c 0,-3.8 -2.4,-6.4 -5.7,-6.4 -3.3,0 -5.7,2.6 -5.7,6.4 0,3.8 2.3,6.4 5.7,6.4 3.3,0 5.7,-2.6 5.7,-6.4 z"
       id="path4149"
       inkscape:connector-curvature="0"
       style="fill:#00121e" /><path
       d="m 265.4,418.1 4.4,0 c 0.2,1.7 1.2,3.1 3.2,3.1 1.8,0 3,-1.6 3,-4 l 0,-8.6 -7.9,0 0,-3.7 12.3,0 0,12.3 c 0,5 -2.8,7.8 -7.7,7.8 -4,0 -6.9,-2.5 -7.3,-6.9 z"
       id="path4151"
       inkscape:connector-curvature="0"
       style="fill:#00121e" /><path
       d="m 293.7,408.5 0,4.5 8.2,0 0,3.6 -8.2,0 0,4.3 9.5,0 0,3.7 -13.9,0 0,-19.7 13.9,0 0,3.7 -9.5,0 z"
       id="path4153"
       inkscape:connector-curvature="0"
       style="fill:#00121e" /><path
       d="m 323.6,424.5 -8.1,-9 0,9 -4.5,0 0,-19.7 4.4,0 0,9.3 7.6,-9.3 5.3,0 -8.1,9.8 8.8,9.8 -5.4,0 z"
       id="path4155"
       inkscape:connector-curvature="0"
       style="fill:#00121e" /><path
       d="m 351.5,408.6 -6.1,0 0,15.9 -4.4,0 0,-15.9 -6.1,0 0,-3.7 16.7,0 0,3.7 z"
       id="path4157"
       inkscape:connector-curvature="0"
       style="fill:#00121e" /><path
       d="m 358.3,404.9 9.2,0 c 3.9,0 6.3,2 6.3,5.1 0,2 -1,3.7 -2.7,4.4 l 0,0.1 c 2.2,0.5 3.6,2.4 3.6,4.8 0,3.2 -2.7,5.3 -6.8,5.3 l -9.6,0 0,-19.7 z m 8.3,8.1 c 1.8,0 3,-1.1 3,-2.6 0,-1.3 -0.9,-2.2 -2.8,-2.2 l -4,0 0,4.7 3.8,0 z m 0.8,8 c 1.8,0 3,-0.9 3,-2.4 0,-1.4 -1.1,-2.4 -2.7,-2.4 l -4.9,0 0,4.7 4.6,0 z"
       id="path4159"
       inkscape:connector-curvature="0"
       style="fill:#00121e" /><path
       d="m 388.4,404.9 4.2,0 8.1,19.7 -4.7,0 -1.5,-4 -8.1,0 -1.5,4 -4.7,0 8.2,-19.7 z m 4.7,12 -2.6,-7 -0.1,0 -2.6,7 5.3,0 z"
       id="path4161"
       inkscape:connector-curvature="0"
       style="fill:#00121e" /><path
       d="m 406.3,415.9 0,-11 4.4,0 0,11.1 c 0,3.1 1.7,5.1 4.3,5.1 2.6,0 4.2,-2.1 4.2,-5.1 l 0,-11.1 4.4,0 0,11 c 0,5.5 -3.4,9.1 -8.7,9.1 -5.2,0 -8.6,-3.6 -8.6,-9.1 z"
       id="path4163"
       inkscape:connector-curvature="0"
       style="fill:#00121e" /></g><g
     id="g4165"
     transform="translate(-194.5,-126.2)"><path
       d="m 431.3,414.7 c 0,-6 4.4,-10.2 10.5,-10.2 5,0 8.7,2.8 9.7,6.7 l -2.5,0 c -1,-2.9 -3.8,-4.5 -7.1,-4.5 -4.6,0 -8,3.3 -8,7.9 0,4.7 3.3,8 7.9,8 4.1,0 6.8,-2.7 7.2,-6.1 l -7.7,0 0,-2.2 10.4,0 c 0.1,6.5 -3.8,10.5 -9.9,10.5 -6.2,0.1 -10.5,-4.1 -10.5,-10.1 z"
       id="path4167"
       inkscape:connector-curvature="0"
       style="fill:#ed7f00" /><path
       d="m 459.4,414.7 c 0,-5.9 4.4,-10.2 10.6,-10.2 6.2,0 10.6,4.3 10.6,10.2 0,5.9 -4.4,10.2 -10.6,10.2 -6.2,0 -10.6,-4.3 -10.6,-10.2 z m 18.6,0 c 0,-4.7 -3.4,-8 -8,-8 -4.6,0 -8,3.3 -8,8 0,4.7 3.4,8 8,8 4.6,0 8,-3.3 8,-8 z m -12.4,-15.2 3.1,0 0,3 -3.1,0 0,-3 z m 5.7,0 3.1,0 0,3 -3.1,0 0,-3 z"
       id="path4169"
       inkscape:connector-curvature="0"
       style="fill:#ed7f00" /><path
       d="m 489.2,404.9 7.4,0 c 4.6,0 7.7,2.7 7.7,6.3 0,4.2 -3.5,6.6 -7.8,6.6 l -4.7,0 0,6.7 -2.5,0 0,-19.6 z m 7.1,10.8 c 3.1,0 5.4,-1.7 5.4,-4.5 0,-2.6 -2.4,-4.2 -5.4,-4.2 l -4.6,0 0,8.7 4.6,0 z"
       id="path4171"
       inkscape:connector-curvature="0"
       style="fill:#ed7f00" /><path
       d="m 512,404.9 7.4,0 c 4.6,0 7.7,2.7 7.7,6.3 0,4.2 -3.5,6.6 -7.8,6.6 l -4.7,0 0,6.7 -2.6,0 0,-19.6 z m 7.1,10.8 c 3.1,0 5.4,-1.7 5.4,-4.5 0,-2.6 -2.4,-4.2 -5.4,-4.2 l -4.6,0 0,8.7 4.6,0 z"
       id="path4173"
       inkscape:connector-curvature="0"
       style="fill:#ed7f00" /><path
       d="m 537.2,407 0,6.7 10.6,0 0,2.2 -10.6,0 0,6.5 11.8,0 0,2.2 -14.2,0 0,-19.7 14.2,0 0,2.2 -11.8,0 z"
       id="path4175"
       inkscape:connector-curvature="0"
       style="fill:#ed7f00" /><path
       d="m 570.9,422.4 0,2.1 -13.6,0 0,-19.7 2.5,0 0,17.6 11.1,0 z"
       id="path4177"
       inkscape:connector-curvature="0"
       style="fill:#ed7f00" /></g></svg>